{
"containerDefinitions": [
  {
    "name": "price-tweet-analysis-sp500",
    "image": "409726098618.dkr.ecr.eu-west-2.amazonaws.com/price-tweet-analysis-sp500",
    "essential": true,
    "memoryReservation": 128,
    "logConfiguration": {
               "logDriver": "awslogs",
               "options": {
                   "awslogs-group": "awslogs-price-tweet-analysis-sp500",
                   "awslogs-region": "us-east-1",
                   "awslogs-stream-prefix": "awslogs-price-tweet-analysis-sp500"
               }
           }
    }
],
"family": "price-tweet-analysis-sp500"
}
